LAYER_NAME,ELEMENT_NAME,ELEMENT_TYPE,ACTION,ELEMENT_TEXT,ELEMENT_BACKGROUND_TEXTURE,ELEMENT_ICON_TEXTURE,ELEMENT_X,ELEMENT_Y,ELEMENT_WIDTH,ELEMENT_HEIGHT,ELEMENT_ICON_FRAME_X,ELEMENT_ICON_FRAME_Y,ELEMENT_ICON_FRAME_WIDTH,ELEMENT_ICON_FRAME_HEIGHT,ELEMENT_BACKGROUND_X,ELEMENT_BACKGROUND_Y,ELEMENT_BACKGROUND_FRAME_X,ELEMENT_BACKGROUND_FRAME_Y,ELEMENT_BACKGROUND_FRAME_WIDTH,ELEMENT_BACKGROUND_FRAME_HEIGHT,ELEMENT_TEXT_FONT,ELEMENT_TEXT_SIZE,ELEMENT_TEXT_X,ELEMENT_TEXT_Y,ELEMENT_TEXT_COLOR_R,ELEMENT_TEXT_COLOR_G,ELEMENT_TEXT_COLOR_B,ELEMENT_TEXT_COLOR_A,ELEMENT_ICON_X,ELEMENT_ICON_Y,ELEMENT_BORDER_COLOR_R,ELEMENT_BORDER_COLOR_G,ELEMENT_BORDER_COLOR_B,ELEMENT_BORDER_COLOR_A,ELEMENT_FILL_COLOR_R,ELEMENT_FILL_COLOR_G,ELEMENT_FILL_COLOR_B,ELEMENT_FILL_COLOR_A,ELEMENT_BORDER_THICKNESS,ELEMENT_IMAGECLIP_LEFT,ELEMENT_IMAGECLIP_TOP,ELEMENT_IMAGECLIP_WIDTH,ELEMENT_IMAGECLIP_HEIGHT,IS_VISIBLE
0,background,image,,,bg,,0,0,280,720,,,,,,,0,0,1280,720,main,40,,,255,255,255,255,,,,,,,,,,,,,,,,
1,btnLanguageEnglish,button,,I know English.,Button-long,,20,50,400,50,,,,,0,0,,,,,main,30,10,5,0,0,0,255,,,,,,,,,,,,,,,,
1,btnLanguageEsperanto,button,,Mi scias Esperanton.,Button-long,,20,150,400,50,,,,,0,0,,,,,main,30,10,5,0,0,0,255,,,,,,,,,,,,,,,,
1,btnLanguageHindi,button,, मुझे हिन्दी आती है।,Button-long,,20,250,400,50,,,,,0,0,,,,,main,30,10,5,0,0,0,255,,,,,,,,,,,,,,,,
1,btnLanguageSpanish,button,,Yo se español/a,Button-long,,20,350,400,50,,,,,0,0,,,,,main,30,10,5,0,0,0,255,,,,,,,,,,,,,,,,
