ELEMENT_NAME,LAYER_NAME,ELEMENT_TYPE,ACTION,ELEMENT_TEXT,ELEMENT_BACKGROUND_TEXTURE,ELEMENT_ICON_TEXTURE,ELEMENT_X,ELEMENT_Y,ELEMENT_WIDTH,ELEMENT_HEIGHT,ELEMENT_TEXT_FONT,ELEMENT_TEXT_SIZE,ELEMENT_TEXT_X,ELEMENT_TEXT_Y,ELEMENT_ICON_FRAME_X,ELEMENT_ICON_FRAME_Y,ELEMENT_ICON_FRAME_WIDTH,ELEMENT_ICON_FRAME_HEIGHT,ELEMENT_BACKGROUND_X,ELEMENT_BACKGROUND_Y,ELEMENT_BACKGROUND_FRAME_X,ELEMENT_BACKGROUND_FRAME_Y,ELEMENT_BACKGROUND_FRAME_WIDTH,ELEMENT_BACKGROUND_FRAME_HEIGHT,ELEMENT_TEXT_COLOR_R,ELEMENT_TEXT_COLOR_G,ELEMENT_TEXT_COLOR_B,ELEMENT_TEXT_COLOR_A,ELEMENT_ICON_X,ELEMENT_ICON_Y,ELEMENT_BORDER_COLOR_R,ELEMENT_BORDER_COLOR_G,ELEMENT_BORDER_COLOR_B,ELEMENT_BORDER_COLOR_A,ELEMENT_FILL_COLOR_R,ELEMENT_FILL_COLOR_G,ELEMENT_FILL_COLOR_B,ELEMENT_FILL_COLOR_A,ELEMENT_BORDER_THICKNESS,ELEMENT_IMAGECLIP_LEFT,ELEMENT_IMAGECLIP_TOP,ELEMENT_IMAGECLIP_WIDTH,ELEMENT_IMAGECLIP_HEIGHT,IS_VISIBLE
bgShape,0,rectangleshape,,,,,480,90,330,540,,,,,,,,,,,,,,,,,,,,,255,255,255,255,132,14,31,255,1,,,,,
header,1,label,,Game paused,,,525,100,,,main,40,,,,,,,,,,,,,255,255,255,255,,,,,,,,,,,,,,,,
btnPlay,2,button,,Resume game,Button-long,Menu-icons40x40,500,200,280,60,main,30,50,8,560,0,40,40,,,,,,,255,255,255,255,0,10,,,,,,,,,,,,,,
btnMainMenu,2,button,,Back to menu,Button-long,Menu-icons40x40,500,540,280,60,main,30,50,10,120,0,40,40,,,,,,,255,255,255,255,0,10,,,,,,,,,,,,,,
lblSoundVolume,1,label,,{{options_sound_effect_volume}},,,500,300,,,main,20,,,,,,,,,,,,,255,255,255,255,,,,,,,,,,,,,,,,
btnSoundEffectsDecrease,1,button,,,Button-long,menu-icons40x40,500,340,40,40,main,20,,,320,0,40,40,,,,,,,,,,,,,,,,,,,,,,,,,,
btnSoundEffectsIncrease,1,button,,,Button-long,menu-icons40x40,750,340,40,40,main,20,,,360,0,40,40,,,,,,,,,,,,,,,,,,,,,,,,,,
soundVolumeBlip0,1,button,,,Button-long,menu-icons40x40,550,340,40,40,main,20,,,400,0,40,40,,,,,,,,,,,,,,,,,,,,,,,,,,
soundVolumeBlip1,1,button,,,Button-long,menu-icons40x40,600,340,40,40,main,20,,,400,0,40,40,,,,,,,,,,,,,,,,,,,,,,,,,,
soundVolumeBlip2,1,button,,,Button-long,menu-icons40x40,650,340,40,40,main,20,,,400,0,40,40,,,,,,,,,,,,,,,,,,,,,,,,,,
soundVolumeBlip3,1,button,,,Button-long,menu-icons40x40,700,340,40,40,main,20,,,400,0,40,40,,,,,,,,,,,,,,,,,,,,,,,,,,
lblMusicVolume,1,label,,{{options_music_volume}},,,500,410,,,main,20,,,,,,,,,,,,,255,255,255,255,,,,,,,,,,,,,,,,
btnMusicDecrease,1,button,,,Button-long,menu-icons40x40,500,450,40,40,main,20,,,320,0,40,40,,,,,,,,,,,,,,,,,,,,,,,,,,
btnMusicIncrease,1,button,,,Button-long,menu-icons40x40,750,450,40,40,main,20,,,360,0,40,40,,,,,,,,,,,,,,,,,,,,,,,,,,
musicVolumeBlip0,1,button,,,Button-long,menu-icons40x40,550,450,40,40,main,20,,,400,0,40,40,,,,,,,,,,,,,,,,,,,,,,,,,,
musicVolumeBlip1,1,button,,,Button-long,menu-icons40x40,600,450,40,40,main,20,,,400,0,40,40,,,,,,,,,,,,,,,,,,,,,,,,,,
musicVolumeBlip2,1,button,,,Button-long,menu-icons40x40,650,450,40,40,main,20,,,400,0,40,40,,,,,,,,,,,,,,,,,,,,,,,,,,
musicVolumeBlip3,1,button,,,Button-long,menu-icons40x40,700,450,40,40,main,20,,,400,0,40,40,,,,,,,,,,,,,,,,,,,,,,,,,,
